{
  "parent": "mocreatures:custom/fencesw",
  "textures": {
    "all": "mocreatures:blocks/bonefencetest",
    "particle": "mocreatures:blocks/bonefencetest",
    "0": "mocreatures:blocks/bonefencetest"
  }
}