{
  "parent": "block/cube",
  "textures": {
    "down": "mocreatures:blocks/wood_planks_ogre_lair",
    "up": "mocreatures:blocks/wood_planks_ogre_lair",
    "north": "mocreatures:blocks/wood_planks_ogre_lair",
    "east": "mocreatures:blocks/wood_planks_ogre_lair",
    "south": "mocreatures:blocks/wood_planks_ogre_lair",
    "west": "mocreatures:blocks/wood_planks_ogre_lair",
    "particle": "mocreatures:blocks/wood_planks_ogre_lair"
  }
}