{
  "_fv": 33,
  "_type": "procedure",
  "definition": {
    "procedurexml": "<?xml version=\"1.0\" encoding=\"UTF-8\" standalone=\"no\"?><xml xmlns=\"https://developers.google.com/blockly/xml\"><variables><variable id=\"Variant\" type=\"Number\">Variant</variable></variables><block deletable=\"false\" type=\"event_trigger\" x=\"40\" y=\"40\"><field name=\"trigger\">entity_spawns</field><next><block type=\"controls_if\"><value name=\"IF0\"><block type=\"logic_entity_compare\"><field name=\"entity\">CUSTOM:Bunny</field><value name=\"compareTo\"><block type=\"entity_from_deps\"/></value></block></value><statement name=\"DO0\"><block type=\"controls_if\"><mutation else=\"1\" elseif=\"3\"/><value name=\"IF0\"><block type=\"math_binary_ops\"><field name=\"OP\">EQ</field><value name=\"A\"><block type=\"entity_direction\"><value name=\"entity\"><block type=\"entity_from_deps\"/></value></block></value><value name=\"B\"><block type=\"math_number\"><field name=\"NUM\">5</field></block></value></block></value><statement name=\"DO0\"><block type=\"variables_set_number\"><mutation xmlns=\"http://www.w3.org/1999/xhtml\" has_entity=\"false\" is_player_var=\"false\"/><field name=\"VAR\">local:Variant</field><value name=\"VAL\"><block type=\"math_number\"><field name=\"NUM\">1</field></block></value><next><block type=\"java_code\"><field name=\"CODE\">((BunnyEntity.CustomEntity) entity).setVariant((int)Variant);</field><next><block type=\"entity_nbt_num_set\"><value name=\"entity\"><block type=\"entity_from_deps\"/></value><value name=\"tagName\"><block type=\"text\"><field name=\"TEXT\">Variant</field></block></value><value name=\"tagValue\"><block type=\"variables_get_number\"><mutation xmlns=\"http://www.w3.org/1999/xhtml\" has_entity=\"false\" is_player_var=\"false\"/><field name=\"VAR\">local:Variant</field></block></value></block></next></block></next></block></statement><value name=\"IF1\"><block type=\"math_binary_ops\"><field name=\"OP\">EQ</field><value name=\"A\"><block type=\"entity_direction\"><value name=\"entity\"><block type=\"entity_from_deps\"/></value></block></value><value name=\"B\"><block type=\"math_number\"><field name=\"NUM\">10</field></block></value></block></value><statement name=\"DO1\"><block type=\"variables_set_number\"><mutation xmlns=\"http://www.w3.org/1999/xhtml\" has_entity=\"false\" is_player_var=\"false\"/><field name=\"VAR\">local:Variant</field><value name=\"VAL\"><block type=\"math_number\"><field name=\"NUM\">2</field></block></value><next><block type=\"java_code\"><field name=\"CODE\">((BunnyEntity.CustomEntity) entity).setVariant((int)Variant);</field><next><block type=\"entity_nbt_num_set\"><value name=\"entity\"><block type=\"entity_from_deps\"/></value><value name=\"tagName\"><block type=\"text\"><field name=\"TEXT\">Variant</field></block></value><value name=\"tagValue\"><block type=\"variables_get_number\"><mutation xmlns=\"http://www.w3.org/1999/xhtml\" has_entity=\"false\" is_player_var=\"false\"/><field name=\"VAR\">local:Variant</field></block></value></block></next></block></next></block></statement><value name=\"IF2\"><block type=\"math_binary_ops\"><field name=\"OP\">EQ</field><value name=\"A\"><block type=\"entity_direction\"><value name=\"entity\"><block type=\"entity_from_deps\"/></value></block></value><value name=\"B\"><block type=\"math_number\"><field name=\"NUM\">15</field></block></value></block></value><statement name=\"DO2\"><block type=\"variables_set_number\"><mutation xmlns=\"http://www.w3.org/1999/xhtml\" has_entity=\"false\" is_player_var=\"false\"/><field name=\"VAR\">local:Variant</field><value name=\"VAL\"><block type=\"math_number\"><field name=\"NUM\">3</field></block></value><next><block type=\"java_code\"><field name=\"CODE\">((BunnyEntity.CustomEntity) entity).setVariant((int)Variant);</field><next><block type=\"entity_nbt_num_set\"><value name=\"entity\"><block type=\"entity_from_deps\"/></value><value name=\"tagName\"><block type=\"text\"><field name=\"TEXT\">Variant</field></block></value><value name=\"tagValue\"><block type=\"variables_get_number\"><mutation xmlns=\"http://www.w3.org/1999/xhtml\" has_entity=\"false\" is_player_var=\"false\"/><field name=\"VAR\">local:Variant</field></block></value></block></next></block></next></block></statement><value name=\"IF3\"><block type=\"math_binary_ops\"><field name=\"OP\">EQ</field><value name=\"A\"><block type=\"entity_direction\"><value name=\"entity\"><block type=\"entity_from_deps\"/></value></block></value><value name=\"B\"><block type=\"math_number\"><field name=\"NUM\">20</field></block></value></block></value><statement name=\"DO3\"><block type=\"variables_set_number\"><mutation xmlns=\"http://www.w3.org/1999/xhtml\" has_entity=\"false\" is_player_var=\"false\"/><field name=\"VAR\">local:Variant</field><value name=\"VAL\"><block type=\"math_number\"><field name=\"NUM\">4</field></block></value><next><block type=\"java_code\"><field name=\"CODE\">((BunnyEntity.CustomEntity) entity).setVariant((int)Variant);</field><next><block type=\"entity_nbt_num_set\"><value name=\"entity\"><block type=\"entity_from_deps\"/></value><value name=\"tagName\"><block type=\"text\"><field name=\"TEXT\">Variant</field></block></value><value name=\"tagValue\"><block type=\"variables_get_number\"><mutation xmlns=\"http://www.w3.org/1999/xhtml\" has_entity=\"false\" is_player_var=\"false\"/><field name=\"VAR\">local:Variant</field></block></value></block></next></block></next></block></statement><statement name=\"ELSE\"><block type=\"controls_if\"><value name=\"IF0\"><block type=\"math_binary_ops\"><field name=\"OP\">EQ</field><value name=\"A\"><block type=\"java_code_get\"><field name=\"CODE\">((BunnyEntity.CustomEntity) entity).getVariant()</field></block></value><value name=\"B\"><block type=\"math_number\"><field name=\"NUM\">0</field></block></value></block></value><statement name=\"DO0\"><block type=\"variables_set_number\"><mutation xmlns=\"http://www.w3.org/1999/xhtml\" has_entity=\"false\" is_player_var=\"false\"/><field name=\"VAR\">local:Variant</field><value name=\"VAL\"><block type=\"math_singular_ops\"><field name=\"OP\">ROUNDUP</field><value name=\"NUM\"><block type=\"math_dual_ops\"><field name=\"OP\">MULTIPLY</field><value name=\"A\"><block type=\"math_number\"><field name=\"NUM\">4</field></block></value><value name=\"B\"><block type=\"math_java_constants\"><field name=\"CONSTANT\">RANDOM</field></block></value></block></value></block></value><next><block type=\"java_code\"><field name=\"CODE\">((BunnyEntity.CustomEntity) entity).setVariant((int)Variant);</field><next><block type=\"entity_nbt_num_set\"><value name=\"entity\"><block type=\"entity_from_deps\"/></value><value name=\"tagName\"><block type=\"text\"><field name=\"TEXT\">Variant</field></block></value><value name=\"tagValue\"><block type=\"variables_get_number\"><mutation xmlns=\"http://www.w3.org/1999/xhtml\" has_entity=\"false\" is_player_var=\"false\"/><field name=\"VAR\">local:Variant</field></block></value></block></next></block></next></block></statement></block></statement></block></statement></block></next></block></xml>"
  }
}