{
  "_fv": 33,
  "_type": "procedure",
  "definition": {
    "procedurexml": "<?xml version=\"1.0\" encoding=\"UTF-8\" standalone=\"no\"?><xml xmlns=\"https://developers.google.com/blockly/xml\"><variables><variable id=\"Big\" type=\"Entity\">Big</variable></variables><block deletable=\"false\" type=\"event_trigger\" x=\"40\" y=\"40\"><field name=\"trigger\">no_ext_trigger</field><next><block type=\"controls_if\"><value name=\"IF0\"><block type=\"entity_haspotioneffect\"><field name=\"potion\">CUSTOM:Grown</field><value name=\"entity\"><block type=\"entity_from_deps\"/></value></block></value><statement name=\"DO0\"><block type=\"entity_remove_specific_potion_effect\"><field name=\"potion\">CUSTOM:Grown</field><value name=\"entity\"><block type=\"entity_from_deps\"/></value><next><block type=\"controls_if\"><mutation elseif=\"3\"/><value name=\"IF0\"><block type=\"math_binary_ops\"><field name=\"OP\">EQ</field><value name=\"A\"><block type=\"entity_nbt_num_get\"><value name=\"entity\"><block type=\"entity_from_deps\"/></value><value name=\"tagName\"><block type=\"text\"><field name=\"TEXT\">Variant</field></block></value></block></value><value name=\"B\"><block type=\"math_number\"><field name=\"NUM\">1</field></block></value></block></value><statement name=\"DO0\"><block type=\"spawn_entity_with_rotation\"><field name=\"entity\">CUSTOM:Bunny</field><value name=\"x\"><block type=\"coord_x\"/></value><value name=\"y\"><block type=\"coord_y\"/></value><value name=\"z\"><block type=\"coord_z\"/></value><value name=\"yaw\"><block type=\"math_number\"><field name=\"NUM\">5</field></block></value><value name=\"pitch\"><block type=\"math_number\"><field name=\"NUM\">50</field></block></value></block></statement><value name=\"IF1\"><block type=\"math_binary_ops\"><field name=\"OP\">EQ</field><value name=\"A\"><block type=\"entity_nbt_num_get\"><value name=\"entity\"><block type=\"entity_from_deps\"/></value><value name=\"tagName\"><block type=\"text\"><field name=\"TEXT\">Variant</field></block></value></block></value><value name=\"B\"><block type=\"math_number\"><field name=\"NUM\">2</field></block></value></block></value><statement name=\"DO1\"><block type=\"spawn_entity_with_rotation\"><field name=\"entity\">CUSTOM:Bunny</field><value name=\"x\"><block type=\"coord_x\"/></value><value name=\"y\"><block type=\"coord_y\"/></value><value name=\"z\"><block type=\"coord_z\"/></value><value name=\"yaw\"><block type=\"math_number\"><field name=\"NUM\">10</field></block></value><value name=\"pitch\"><block type=\"math_number\"><field name=\"NUM\">50</field></block></value></block></statement><value name=\"IF2\"><block type=\"math_binary_ops\"><field name=\"OP\">EQ</field><value name=\"A\"><block type=\"entity_nbt_num_get\"><value name=\"entity\"><block type=\"entity_from_deps\"/></value><value name=\"tagName\"><block type=\"text\"><field name=\"TEXT\">Variant</field></block></value></block></value><value name=\"B\"><block type=\"math_number\"><field name=\"NUM\">3</field></block></value></block></value><statement name=\"DO2\"><block type=\"spawn_entity_with_rotation\"><field name=\"entity\">CUSTOM:Bunny</field><value name=\"x\"><block type=\"coord_x\"/></value><value name=\"y\"><block type=\"coord_y\"/></value><value name=\"z\"><block type=\"coord_z\"/></value><value name=\"yaw\"><block type=\"math_number\"><field name=\"NUM\">15</field></block></value><value name=\"pitch\"><block type=\"math_number\"><field name=\"NUM\">50</field></block></value></block></statement><value name=\"IF3\"><block type=\"math_binary_ops\"><field name=\"OP\">EQ</field><value name=\"A\"><block type=\"entity_nbt_num_get\"><value name=\"entity\"><block type=\"entity_from_deps\"/></value><value name=\"tagName\"><block type=\"text\"><field name=\"TEXT\">Variant</field></block></value></block></value><value name=\"B\"><block type=\"math_number\"><field name=\"NUM\">4</field></block></value></block></value><statement name=\"DO3\"><block type=\"spawn_entity_with_rotation\"><field name=\"entity\">CUSTOM:Bunny</field><value name=\"x\"><block type=\"coord_x\"/></value><value name=\"y\"><block type=\"coord_y\"/></value><value name=\"z\"><block type=\"coord_z\"/></value><value name=\"yaw\"><block type=\"math_number\"><field name=\"NUM\">20</field></block></value><value name=\"pitch\"><block type=\"math_number\"><field name=\"NUM\">50</field></block></value></block></statement><next><block type=\"variables_set_entity\"><mutation xmlns=\"http://www.w3.org/1999/xhtml\" has_entity=\"false\" is_player_var=\"false\"/><field name=\"VAR\">local:Big</field><value name=\"VAL\"><block type=\"world_entity_inrange\"><field name=\"entity\">CUSTOM:Bunny</field><value name=\"x\"><block type=\"coord_x\"/></value><value name=\"y\"><block type=\"coord_y\"/></value><value name=\"z\"><block type=\"coord_z\"/></value><value name=\"range\"><block type=\"math_number\"><field name=\"NUM\">4</field></block></value></block></value><next><block type=\"entity_set_display_name\"><value name=\"entity\"><block type=\"variables_get_entity\"><mutation xmlns=\"http://www.w3.org/1999/xhtml\" has_entity=\"false\" is_player_var=\"false\"/><field name=\"VAR\">local:Big</field></block></value><value name=\"displayname\"><block type=\"entity_name\"><value name=\"entity\"><block type=\"entity_from_deps\"/></value></block></value><next><block type=\"entity_set_health\"><value name=\"entity\"><block type=\"variables_get_entity\"><mutation xmlns=\"http://www.w3.org/1999/xhtml\" has_entity=\"false\" is_player_var=\"false\"/><field name=\"VAR\">local:Big</field></block></value><value name=\"health\"><block type=\"entity_health\"><value name=\"entity\"><block type=\"entity_from_deps\"/></value></block></value><next><block type=\"controls_if\"><mutation else=\"1\"/><value name=\"IF0\"><block type=\"entity_istamed\"><value name=\"entity\"><block type=\"entity_from_deps\"/></value></block></value><statement name=\"DO0\"><block type=\"entity_maketamed\"><value name=\"entity\"><block type=\"variables_get_entity\"><mutation xmlns=\"http://www.w3.org/1999/xhtml\" has_entity=\"false\" is_player_var=\"false\"/><field name=\"VAR\">local:Big</field></block></value><value name=\"sourceentity\"><block type=\"entity_getowner\"><value name=\"entity\"><block type=\"entity_from_deps\"/></value></block></value><next><block type=\"entity_despawn\"><value name=\"entity\"><block type=\"entity_from_deps\"/></value></block></next></block></statement><statement name=\"ELSE\"><block type=\"entity_despawn\"><value name=\"entity\"><block type=\"entity_from_deps\"/></value></block></statement></block></next></block></next></block></next></block></next></block></next></block></statement><next><block type=\"controls_if\"><value name=\"IF0\"><block type=\"entity_isriding\"><value name=\"entity\"><block type=\"entity_from_deps\"/></value></block></value><statement name=\"DO0\"><block type=\"controls_if\"><value name=\"IF0\"><block type=\"entity_issneaking\"><value name=\"entity\"><block type=\"entity_getridingentity\"><value name=\"entity\"><block type=\"entity_from_deps\"/></value></block></value></block></value><statement name=\"DO0\"><block type=\"java_code\"><field name=\"CODE\">entity.stopRiding();</field></block></statement></block></statement></block></next></block></next></block></xml>"
  }
}