{
  "_fv": 33,
  "_type": "rangeditem",
  "definition": {
    "renderType": 0,
    "texture": "golemmushroom",
    "customModelName": "Normal",
    "name": "Golem Mushroom",
    "specialInfo": [],
    "creativeTab": {
      "value": "No creative tab entry"
    },
    "stackSize": 1,
    "ammoItem": {
      "value": ""
    },
    "shootConstantly": false,
    "usageCount": 100,
    "actionSound": {
      "value": "entity.ghast.shoot"
    },
    "hasGlow": false,
    "animation": "spear",
    "enableMeleeDamage": false,
    "damageVsEntity": 2.0,
    "bulletPower": 0.5,
    "bulletDamage": 3.0,
    "bulletKnockback": 2,
    "bulletParticles": false,
    "bulletIgnitesFire": false,
    "bulletItemTexture": {
      "value": "CUSTOM:GolemMushroom"
    },
    "bulletModel": "Modelmushroomprojectile",
    "customBulletModelTexture": "mushroomprojectile.png",
    "onBulletHitsPlayer": {
      "name": "GolemMushroomHit"
    }
  }
}