{
  "_fv": 33,
  "_type": "potioneffect",
  "definition": {
    "effectName": "HorseB",
    "icon": "barrelglow.png",
    "color": {
      "value": -1,
      "falpha": 0.0
    },
    "isInstant": false,
    "isBad": false,
    "isBenefitical": false,
    "renderStatusInInventory": false,
    "renderStatusInHUD": false
  }
}