{
  "_fv": 33,
  "_type": "tag",
  "definition": {
    "type": "Blocks",
    "items": [],
    "blocks": [
      {
        "value": "CUSTOM:WyvernLog"
      },
      {
        "value": "CUSTOM:OgreLog"
      }
    ],
    "functions": [],
    "entities": [],
    "name": "logs",
    "namespace": "minecraft"
  }
}