{
  "_fv": 33,
  "_type": "recipe",
  "definition": {
    "recipeType": "Crafting",
    "xpReward": 0.0,
    "cookingTime": 200,
    "recipeRetstackSize": 1,
    "group": "",
    "recipeShapeless": false,
    "recipeSlots": [
      {
        "value": "CUSTOM:BigCatClaw"
      },
      {
        "value": "Items.LEATHER"
      },
      {
        "value": "CUSTOM:BigCatClaw"
      },
      {
        "value": "Items.LEATHER"
      },
      {
        "value": ""
      },
      {
        "value": "Items.LEATHER"
      },
      {
        "value": "CUSTOM:BigCatClaw"
      },
      {
        "value": ""
      },
      {
        "value": "Items.IRON_INGOT"
      }
    ],
    "recipeReturnStack": {
      "value": "CUSTOM:Whip"
    },
    "name": "making_whip",
    "namespace": "mod"
  }
}