{
  "_fv": 33,
  "_type": "procedure",
  "definition": {
    "procedurexml": "<?xml version=\"1.0\" encoding=\"UTF-8\" standalone=\"no\"?><xml xmlns=\"https://developers.google.com/blockly/xml\"><block deletable=\"false\" type=\"event_trigger\" x=\"40\" y=\"40\"><field name=\"trigger\">no_ext_trigger</field><next><block type=\"spawn_entity_with_rotation_velocity\"><field name=\"entity\">CUSTOM:RiverMammothBaby</field><value name=\"x\"><block type=\"coord_x\"/></value><value name=\"y\"><block type=\"coord_y\"/></value><value name=\"z\"><block type=\"coord_z\"/></value><value name=\"yaw\"><block type=\"math_number\"><field name=\"NUM\">0</field></block></value><value name=\"pitch\"><block type=\"math_number\"><field name=\"NUM\">50</field></block></value><value name=\"vx\"><block type=\"math_number\"><field name=\"NUM\">0</field></block></value><value name=\"vy\"><block type=\"math_number\"><field name=\"NUM\">0</field></block></value><value name=\"vz\"><block type=\"math_number\"><field name=\"NUM\">0</field></block></value><next><block type=\"entity_maketamed\"><value name=\"entity\"><block type=\"world_entity_inrange\"><field name=\"entity\">CUSTOM:RiverMammothBaby</field><value name=\"x\"><block type=\"coord_x\"/></value><value name=\"y\"><block type=\"coord_y\"/></value><value name=\"z\"><block type=\"coord_z\"/></value><value name=\"range\"><block type=\"math_number\"><field name=\"NUM\">4</field></block></value></block></value><value name=\"sourceentity\"><block type=\"entity_from_deps\"/></value><next><block type=\"controls_if\"><value name=\"IF0\"><block type=\"entity_istamed_by\"><value name=\"entity\"><block type=\"world_entity_inrange\"><field name=\"entity\">CUSTOM:RiverMammothBaby</field><value name=\"x\"><block type=\"coord_x\"/></value><value name=\"y\"><block type=\"coord_y\"/></value><value name=\"z\"><block type=\"coord_z\"/></value><value name=\"range\"><block type=\"math_number\"><field name=\"NUM\">4</field></block></value></block></value><value name=\"tamedBy\"><block type=\"entity_from_deps\"/></value></block></value><statement name=\"DO0\"><block type=\"entity_set_display_name\"><value name=\"entity\"><block type=\"world_entity_inrange\"><field name=\"entity\">CUSTOM:RiverMammothBaby</field><value name=\"x\"><block type=\"coord_x\"/></value><value name=\"y\"><block type=\"coord_y\"/></value><value name=\"z\"><block type=\"coord_z\"/></value><value name=\"range\"><block type=\"math_number\"><field name=\"NUM\">4</field></block></value></block></value><value name=\"displayname\"><block type=\"item_nbt_text_get\"><value name=\"tagName\"><block type=\"text\"><field name=\"TEXT\">Name</field></block></value><value name=\"item\"><block type=\"itemstack_to_mcitem\"/></value></block></value></block></statement><next><block type=\"controls_if\"><value name=\"IF0\"><block type=\"entity_istamed_by\"><value name=\"entity\"><block type=\"world_entity_inrange\"><field name=\"entity\">CUSTOM:RiverMammothBaby</field><value name=\"x\"><block type=\"coord_x\"/></value><value name=\"y\"><block type=\"coord_y\"/></value><value name=\"z\"><block type=\"coord_z\"/></value><value name=\"range\"><block type=\"math_number\"><field name=\"NUM\">4</field></block></value></block></value><value name=\"tamedBy\"><block type=\"entity_from_deps\"/></value></block></value><statement name=\"DO0\"><block type=\"entity_set_health\"><value name=\"entity\"><block type=\"world_entity_inrange\"><field name=\"entity\">CUSTOM:RiverMammothBaby</field><value name=\"x\"><block type=\"coord_x\"/></value><value name=\"y\"><block type=\"coord_y\"/></value><value name=\"z\"><block type=\"coord_z\"/></value><value name=\"range\"><block type=\"math_number\"><field name=\"NUM\">4</field></block></value></block></value><value name=\"health\"><block type=\"item_nbt_num_get\"><value name=\"tagName\"><block type=\"text\"><field name=\"TEXT\">Health</field></block></value><value name=\"item\"><block type=\"itemstack_to_mcitem\"/></value></block></value></block></statement><next><block type=\"controls_if\"><value name=\"IF0\"><block type=\"entity_istamed_by\"><value name=\"entity\"><block type=\"world_entity_inrange\"><field name=\"entity\">CUSTOM:RiverMammothBaby</field><value name=\"x\"><block type=\"coord_x\"/></value><value name=\"y\"><block type=\"coord_y\"/></value><value name=\"z\"><block type=\"coord_z\"/></value><value name=\"range\"><block type=\"math_number\"><field name=\"NUM\">4</field></block></value></block></value><value name=\"tamedBy\"><block type=\"entity_from_deps\"/></value></block></value><statement name=\"DO0\"><block type=\"entity_add_potion_advanced\"><field name=\"potion\">CUSTOM:Baby</field><value name=\"level\"><block type=\"math_number\"><field name=\"NUM\">1</field></block></value><value name=\"duration\"><block type=\"item_nbt_num_get\"><value name=\"tagName\"><block type=\"text\"><field name=\"TEXT\">Age</field></block></value><value name=\"item\"><block type=\"itemstack_to_mcitem\"/></value></block></value><value name=\"ambient\"><block type=\"logic_boolean\"><field name=\"BOOL\">FALSE</field></block></value><value name=\"particles\"><block type=\"logic_boolean\"><field name=\"BOOL\">FALSE</field></block></value><value name=\"entity\"><block type=\"world_entity_inrange\"><field name=\"entity\">CUSTOM:RiverMammothBaby</field><value name=\"x\"><block type=\"coord_x\"/></value><value name=\"y\"><block type=\"coord_y\"/></value><value name=\"z\"><block type=\"coord_z\"/></value><value name=\"range\"><block type=\"math_number\"><field name=\"NUM\">4</field></block></value></block></value></block></statement><next><block type=\"controls_if\"><mutation elseif=\"1\"/><value name=\"IF0\"><block type=\"compare_mcitems\"><value name=\"a\"><block type=\"entity_iteminhand\"><value name=\"entity\"><block type=\"entity_from_deps\"/></value></block></value><value name=\"b\"><block type=\"mcitem_all\"><field name=\"value\">CUSTOM:PetAmuletMammothRiverBaby</field></block></value></block></value><statement name=\"DO0\"><block type=\"entity_set_mainhand_item\"><value name=\"entity\"><block type=\"entity_from_deps\"/></value><value name=\"amount\"><block type=\"math_number\"><field name=\"NUM\">1</field></block></value><value name=\"item\"><block type=\"mcitem_all\"><field name=\"value\">CUSTOM:PetAmuletEmpty</field></block></value></block></statement><value name=\"IF1\"><block type=\"compare_mcitems\"><value name=\"a\"><block type=\"entity_iteminoffhand\"><value name=\"entity\"><block type=\"entity_from_deps\"/></value></block></value><value name=\"b\"><block type=\"mcitem_all\"><field name=\"value\">CUSTOM:PetAmuletMammothRiverBaby</field></block></value></block></value><statement name=\"DO1\"><block type=\"entity_set_offhand_item\"><value name=\"entity\"><block type=\"entity_from_deps\"/></value><value name=\"amount\"><block type=\"math_number\"><field name=\"NUM\">1</field></block></value><value name=\"item\"><block type=\"mcitem_all\"><field name=\"value\">CUSTOM:PetAmuletEmpty</field></block></value></block></statement></block></next></block></next></block></next></block></next></block></next></block></next></block></xml>"
  }
}