{
  "_fv": 33,
  "_type": "procedure",
  "definition": {
    "procedurexml": "<xml xmlns=\"https://developers.google.com/blockly/xml\"><variables><variable type=\"Number\" id=\"WolfVariant\">WolfVariant</variable></variables><block type=\"event_trigger\" deletable=\"false\" x=\"160\" y=\"163\"><field name=\"trigger\">no_ext_trigger</field><next><block type=\"controls_if\"><value name=\"IF0\"><block type=\"compare_mcitems\"><value name=\"a\"><block type=\"entity_iteminhand\"><value name=\"entity\"><block type=\"source_entity_from_deps\"></block></value></block></value><value name=\"b\"><block type=\"mcitem_all\"><field name=\"value\">Items.LEAD</field></block></value></block></value><statement name=\"DO0\"><block type=\"entity_add_potion\"><field name=\"potion\">SPEED</field><value name=\"level\"><block type=\"math_number\"><field name=\"NUM\">1</field></block></value><value name=\"duration\"><block type=\"math_number\"><field name=\"NUM\">100</field></block></value><value name=\"entity\"><block type=\"entity_from_deps\"></block></value><next><block type=\"entity_add_potion\"><field name=\"potion\">SLOWNESS</field><value name=\"level\"><block type=\"math_number\"><field name=\"NUM\">1</field></block></value><value name=\"duration\"><block type=\"math_number\"><field name=\"NUM\">100</field></block></value><value name=\"entity\"><block type=\"source_entity_from_deps\"></block></value><next><block type=\"controls_if\"><mutation elseif=\"5\"></mutation><value name=\"IF0\"><block type=\"math_binary_ops\"><field name=\"OP\">EQ</field><value name=\"A\"><block type=\"entity_nbt_num_get\"><value name=\"entity\"><block type=\"entity_from_deps\"></block></value><value name=\"tagName\"><block type=\"text\"><field name=\"TEXT\">Variant</field></block></value></block></value><value name=\"B\"><block type=\"math_number\"><field name=\"NUM\">1</field></block></value></block></value><statement name=\"DO0\"><block type=\"entity_add_potion_advanced\"><field name=\"potion\">CUSTOM:WolfTame</field><value name=\"level\"><block type=\"math_number\"><field name=\"NUM\">1</field></block></value><value name=\"duration\"><block type=\"math_number\"><field name=\"NUM\">1000</field></block></value><value name=\"ambient\"><block type=\"logic_boolean\"><field name=\"BOOL\">FALSE</field></block></value><value name=\"particles\"><block type=\"logic_boolean\"><field name=\"BOOL\">FALSE</field></block></value><value name=\"entity\"><block type=\"source_entity_from_deps\"></block></value></block></statement><value name=\"IF1\"><block type=\"math_binary_ops\"><field name=\"OP\">EQ</field><value name=\"A\"><block type=\"entity_nbt_num_get\"><value name=\"entity\"><block type=\"entity_from_deps\"></block></value><value name=\"tagName\"><block type=\"text\"><field name=\"TEXT\">Variant</field></block></value></block></value><value name=\"B\"><block type=\"math_number\"><field name=\"NUM\">2</field></block></value></block></value><statement name=\"DO1\"><block type=\"entity_add_potion_advanced\"><field name=\"potion\">CUSTOM:WolfTame2</field><value name=\"level\"><block type=\"math_number\"><field name=\"NUM\">1</field></block></value><value name=\"duration\"><block type=\"math_number\"><field name=\"NUM\">1000</field></block></value><value name=\"ambient\"><block type=\"logic_boolean\"><field name=\"BOOL\">FALSE</field></block></value><value name=\"particles\"><block type=\"logic_boolean\"><field name=\"BOOL\">FALSE</field></block></value><value name=\"entity\"><block type=\"source_entity_from_deps\"></block></value></block></statement><value name=\"IF2\"><block type=\"math_binary_ops\"><field name=\"OP\">EQ</field><value name=\"A\"><block type=\"entity_nbt_num_get\"><value name=\"entity\"><block type=\"entity_from_deps\"></block></value><value name=\"tagName\"><block type=\"text\"><field name=\"TEXT\">Variant</field></block></value></block></value><value name=\"B\"><block type=\"math_number\"><field name=\"NUM\">3</field></block></value></block></value><statement name=\"DO2\"><block type=\"entity_add_potion_advanced\"><field name=\"potion\">CUSTOM:WolfTame3</field><value name=\"level\"><block type=\"math_number\"><field name=\"NUM\">1</field></block></value><value name=\"duration\"><block type=\"math_number\"><field name=\"NUM\">1000</field></block></value><value name=\"ambient\"><block type=\"logic_boolean\"><field name=\"BOOL\">FALSE</field></block></value><value name=\"particles\"><block type=\"logic_boolean\"><field name=\"BOOL\">FALSE</field></block></value><value name=\"entity\"><block type=\"source_entity_from_deps\"></block></value></block></statement><value name=\"IF3\"><block type=\"math_binary_ops\"><field name=\"OP\">EQ</field><value name=\"A\"><block type=\"entity_nbt_num_get\"><value name=\"entity\"><block type=\"entity_from_deps\"></block></value><value name=\"tagName\"><block type=\"text\"><field name=\"TEXT\">Variant</field></block></value></block></value><value name=\"B\"><block type=\"math_number\"><field name=\"NUM\">4</field></block></value></block></value><statement name=\"DO3\"><block type=\"entity_add_potion_advanced\"><field name=\"potion\">CUSTOM:WolfTame4</field><value name=\"level\"><block type=\"math_number\"><field name=\"NUM\">1</field></block></value><value name=\"duration\"><block type=\"math_number\"><field name=\"NUM\">1000</field></block></value><value name=\"ambient\"><block type=\"logic_boolean\"><field name=\"BOOL\">FALSE</field></block></value><value name=\"particles\"><block type=\"logic_boolean\"><field name=\"BOOL\">FALSE</field></block></value><value name=\"entity\"><block type=\"source_entity_from_deps\"></block></value></block></statement><value name=\"IF4\"><block type=\"math_binary_ops\"><field name=\"OP\">EQ</field><value name=\"A\"><block type=\"entity_nbt_num_get\"><value name=\"entity\"><block type=\"entity_from_deps\"></block></value><value name=\"tagName\"><block type=\"text\"><field name=\"TEXT\">Variant</field></block></value></block></value><value name=\"B\"><block type=\"math_number\"><field name=\"NUM\">5</field></block></value></block></value><statement name=\"DO4\"><block type=\"entity_add_potion_advanced\"><field name=\"potion\">CUSTOM:WolfTame5</field><value name=\"level\"><block type=\"math_number\"><field name=\"NUM\">1</field></block></value><value name=\"duration\"><block type=\"math_number\"><field name=\"NUM\">1000</field></block></value><value name=\"ambient\"><block type=\"logic_boolean\"><field name=\"BOOL\">FALSE</field></block></value><value name=\"particles\"><block type=\"logic_boolean\"><field name=\"BOOL\">FALSE</field></block></value><value name=\"entity\"><block type=\"source_entity_from_deps\"></block></value></block></statement><value name=\"IF5\"><block type=\"math_binary_ops\"><field name=\"OP\">EQ</field><value name=\"A\"><block type=\"entity_nbt_num_get\"><value name=\"entity\"><block type=\"entity_from_deps\"></block></value><value name=\"tagName\"><block type=\"text\"><field name=\"TEXT\">Variant</field></block></value></block></value><value name=\"B\"><block type=\"math_number\"><field name=\"NUM\">6</field></block></value></block></value><statement name=\"DO5\"><block type=\"entity_add_potion_advanced\"><field name=\"potion\">CUSTOM:WolfTame6</field><value name=\"level\"><block type=\"math_number\"><field name=\"NUM\">1</field></block></value><value name=\"duration\"><block type=\"math_number\"><field name=\"NUM\">1000</field></block></value><value name=\"ambient\"><block type=\"logic_boolean\"><field name=\"BOOL\">FALSE</field></block></value><value name=\"particles\"><block type=\"logic_boolean\"><field name=\"BOOL\">FALSE</field></block></value><value name=\"entity\"><block type=\"source_entity_from_deps\"></block></value></block></statement><next><block type=\"wait\"><value name=\"ticks\"><block type=\"math_number\"><field name=\"NUM\">100</field></block></value><statement name=\"do\"><block type=\"entity_send_chat\"><value name=\"text\"><block type=\"text\"><field name=\"TEXT\">Time's Up!</field></block></value><value name=\"entity\"><block type=\"source_entity_from_deps\"></block></value><value name=\"actbar\"><block type=\"logic_boolean\"><field name=\"BOOL\">FALSE</field></block></value><next><block type=\"controls_repeat_ext\"><value name=\"TIMES\"><block type=\"math_number\"><field name=\"NUM\">40</field></block></value><statement name=\"DO\"><block type=\"controls_if\"><mutation elseif=\"1\"></mutation><value name=\"IF0\"><block type=\"math_binary_ops\"><field name=\"OP\">GT</field><value name=\"A\"><block type=\"entity_health\"><value name=\"entity\"><block type=\"entity_from_deps\"></block></value></block></value><value name=\"B\"><block type=\"math_number\"><field name=\"NUM\">5</field></block></value></block></value><statement name=\"DO0\"><block type=\"entity_clearpotions\"><value name=\"entity\"><block type=\"entity_from_deps\"></block></value></block></statement><value name=\"IF1\"><block type=\"math_binary_ops\"><field name=\"OP\">GT</field><value name=\"A\"><block type=\"entity_health\"><value name=\"entity\"><block type=\"entity_from_deps\"></block></value></block></value><value name=\"B\"><block type=\"math_number\"><field name=\"NUM\">0</field></block></value></block></value><statement name=\"DO1\"><block type=\"entity_despawn\"><value name=\"entity\"><block type=\"entity_from_deps\"></block></value><next><block type=\"controls_if\"><mutation elseif=\"5\"></mutation><value name=\"IF0\"><block type=\"entity_haspotioneffect\"><field name=\"potion\">CUSTOM:WolfTame</field><value name=\"entity\"><block type=\"source_entity_from_deps\"></block></value></block></value><statement name=\"DO0\"><block type=\"spawn_entity_with_rotation_velocity\"><field name=\"entity\">CUSTOM:MocWolfTamed</field><value name=\"x\"><block type=\"coord_x\"></block></value><value name=\"y\"><block type=\"coord_y\"></block></value><value name=\"z\"><block type=\"coord_z\"></block></value><value name=\"yaw\"><block type=\"math_number\"><field name=\"NUM\">5</field></block></value><value name=\"pitch\"><block type=\"math_number\"><field name=\"NUM\">50</field></block></value><value name=\"vx\"><block type=\"math_number\"><field name=\"NUM\">0</field></block></value><value name=\"vy\"><block type=\"math_number\"><field name=\"NUM\">0</field></block></value><value name=\"vz\"><block type=\"math_number\"><field name=\"NUM\">0</field></block></value><next><block type=\"entity_remove_specific_potion_effect\"><field name=\"potion\">CUSTOM:WolfTame</field><value name=\"entity\"><block type=\"source_entity_from_deps\"></block></value></block></next></block></statement><value name=\"IF1\"><block type=\"entity_haspotioneffect\"><field name=\"potion\">CUSTOM:WolfTame2</field><value name=\"entity\"><block type=\"source_entity_from_deps\"></block></value></block></value><statement name=\"DO1\"><block type=\"spawn_entity_with_rotation_velocity\"><field name=\"entity\">CUSTOM:MocWolfTamed</field><value name=\"x\"><block type=\"coord_x\"></block></value><value name=\"y\"><block type=\"coord_y\"></block></value><value name=\"z\"><block type=\"coord_z\"></block></value><value name=\"yaw\"><block type=\"math_number\"><field name=\"NUM\">10</field></block></value><value name=\"pitch\"><block type=\"math_number\"><field name=\"NUM\">50</field></block></value><value name=\"vx\"><block type=\"math_number\"><field name=\"NUM\">0</field></block></value><value name=\"vy\"><block type=\"math_number\"><field name=\"NUM\">0</field></block></value><value name=\"vz\"><block type=\"math_number\"><field name=\"NUM\">0</field></block></value><next><block type=\"entity_remove_specific_potion_effect\"><field name=\"potion\">CUSTOM:WolfTame2</field><value name=\"entity\"><block type=\"source_entity_from_deps\"></block></value></block></next></block></statement><value name=\"IF2\"><block type=\"entity_haspotioneffect\"><field name=\"potion\">CUSTOM:WolfTame3</field><value name=\"entity\"><block type=\"source_entity_from_deps\"></block></value></block></value><statement name=\"DO2\"><block type=\"spawn_entity_with_rotation_velocity\"><field name=\"entity\">CUSTOM:MocWolfTamed</field><value name=\"x\"><block type=\"coord_x\"></block></value><value name=\"y\"><block type=\"coord_y\"></block></value><value name=\"z\"><block type=\"coord_z\"></block></value><value name=\"yaw\"><block type=\"math_number\"><field name=\"NUM\">15</field></block></value><value name=\"pitch\"><block type=\"math_number\"><field name=\"NUM\">50</field></block></value><value name=\"vx\"><block type=\"math_number\"><field name=\"NUM\">0</field></block></value><value name=\"vy\"><block type=\"math_number\"><field name=\"NUM\">0</field></block></value><value name=\"vz\"><block type=\"math_number\"><field name=\"NUM\">0</field></block></value><next><block type=\"entity_remove_specific_potion_effect\"><field name=\"potion\">CUSTOM:WolfTame3</field><value name=\"entity\"><block type=\"source_entity_from_deps\"></block></value></block></next></block></statement><value name=\"IF3\"><block type=\"entity_haspotioneffect\"><field name=\"potion\">CUSTOM:WolfTame4</field><value name=\"entity\"><block type=\"source_entity_from_deps\"></block></value></block></value><statement name=\"DO3\"><block type=\"spawn_entity_with_rotation_velocity\"><field name=\"entity\">CUSTOM:MocWolfTamed</field><value name=\"x\"><block type=\"coord_x\"></block></value><value name=\"y\"><block type=\"coord_y\"></block></value><value name=\"z\"><block type=\"coord_z\"></block></value><value name=\"yaw\"><block type=\"math_number\"><field name=\"NUM\">20</field></block></value><value name=\"pitch\"><block type=\"math_number\"><field name=\"NUM\">50</field></block></value><value name=\"vx\"><block type=\"math_number\"><field name=\"NUM\">0</field></block></value><value name=\"vy\"><block type=\"math_number\"><field name=\"NUM\">0</field></block></value><value name=\"vz\"><block type=\"math_number\"><field name=\"NUM\">0</field></block></value><next><block type=\"entity_remove_specific_potion_effect\"><field name=\"potion\">CUSTOM:WolfTame4</field><value name=\"entity\"><block type=\"source_entity_from_deps\"></block></value></block></next></block></statement><value name=\"IF4\"><block type=\"entity_haspotioneffect\"><field name=\"potion\">CUSTOM:WolfTame5</field><value name=\"entity\"><block type=\"source_entity_from_deps\"></block></value></block></value><statement name=\"DO4\"><block type=\"spawn_entity_with_rotation_velocity\"><field name=\"entity\">CUSTOM:MocWolfTamed</field><value name=\"x\"><block type=\"coord_x\"></block></value><value name=\"y\"><block type=\"coord_y\"></block></value><value name=\"z\"><block type=\"coord_z\"></block></value><value name=\"yaw\"><block type=\"math_number\"><field name=\"NUM\">25</field></block></value><value name=\"pitch\"><block type=\"math_number\"><field name=\"NUM\">50</field></block></value><value name=\"vx\"><block type=\"math_number\"><field name=\"NUM\">0</field></block></value><value name=\"vy\"><block type=\"math_number\"><field name=\"NUM\">0</field></block></value><value name=\"vz\"><block type=\"math_number\"><field name=\"NUM\">0</field></block></value><next><block type=\"entity_remove_specific_potion_effect\"><field name=\"potion\">CUSTOM:WolfTame5</field><value name=\"entity\"><block type=\"source_entity_from_deps\"></block></value></block></next></block></statement><value name=\"IF5\"><block type=\"entity_haspotioneffect\"><field name=\"potion\">CUSTOM:WolfTame6</field><value name=\"entity\"><block type=\"source_entity_from_deps\"></block></value></block></value><statement name=\"DO5\"><block type=\"spawn_entity_with_rotation_velocity\"><field name=\"entity\">CUSTOM:MocWolfTamed</field><value name=\"x\"><block type=\"coord_x\"></block></value><value name=\"y\"><block type=\"coord_y\"></block></value><value name=\"z\"><block type=\"coord_z\"></block></value><value name=\"yaw\"><block type=\"math_number\"><field name=\"NUM\">30</field></block></value><value name=\"pitch\"><block type=\"math_number\"><field name=\"NUM\">50</field></block></value><value name=\"vx\"><block type=\"math_number\"><field name=\"NUM\">0</field></block></value><value name=\"vy\"><block type=\"math_number\"><field name=\"NUM\">0</field></block></value><value name=\"vz\"><block type=\"math_number\"><field name=\"NUM\">0</field></block></value><next><block type=\"entity_remove_specific_potion_effect\"><field name=\"potion\">CUSTOM:WolfTame6</field><value name=\"entity\"><block type=\"source_entity_from_deps\"></block></value></block></next></block></statement><next><block type=\"entity_maketamed\"><value name=\"entity\"><block type=\"world_entity_inrange\"><field name=\"entity\">CUSTOM:MocWolfTamed</field><value name=\"x\"><block type=\"coord_x\"></block></value><value name=\"y\"><block type=\"coord_y\"></block></value><value name=\"z\"><block type=\"coord_z\"></block></value><value name=\"range\"><block type=\"math_number\"><field name=\"NUM\">8</field></block></value></block></value><value name=\"sourceentity\"><block type=\"source_entity_from_deps\"></block></value><next><block type=\"entity_add_potion_advanced\"><field name=\"potion\">CUSTOM:Tame</field><value name=\"level\"><block type=\"math_number\"><field name=\"NUM\">1</field></block></value><value name=\"duration\"><block type=\"math_number\"><field name=\"NUM\">100</field></block></value><value name=\"ambient\"><block type=\"logic_boolean\"><field name=\"BOOL\">FALSE</field></block></value><value name=\"particles\"><block type=\"logic_boolean\"><field name=\"BOOL\">FALSE</field></block></value><value name=\"entity\"><block type=\"world_entity_inrange\"><field name=\"entity\">CUSTOM:MocWolfTamed</field><value name=\"x\"><block type=\"coord_x\"></block></value><value name=\"y\"><block type=\"coord_y\"></block></value><value name=\"z\"><block type=\"coord_z\"></block></value><value name=\"range\"><block type=\"math_number\"><field name=\"NUM\">8</field></block></value></block></value><next><block type=\"entity_open_gui\"><field name=\"guiname\">TamingName</field><value name=\"entity\"><block type=\"source_entity_from_deps\"></block></value><value name=\"x\"><block type=\"coord_x\"></block></value><value name=\"y\"><block type=\"coord_y\"></block></value><value name=\"z\"><block type=\"coord_z\"></block></value><next><block type=\"controls_flow_statements\"><field name=\"FLOW\">BREAK</field></block></next></block></next></block></next></block></next></block></next></block></statement></block></statement></block></next></block></statement></block></next></block></next></block></next></block></statement></block></next></block></xml>"
  }
}