{
  "credit": "Made with Blockbench",
  "texture_size": [
    64,
    64
  ],
  "elements": [
    {
      "from": [
        7,
        0,
        6
      ],
      "to": [
        9,
        24,
        10
      ],
      "rotation": {
        "angle": 0,
        "axis": "y",
        "origin": [
          8,
          11.33333,
          8
        ]
      },
      "faces": {
        "north": {
          "uv": [
            8,
            6.5,
            8.5,
            12.5
          ],
          "texture": "#0"
        },
        "east": {
          "uv": [
            0,
            0,
            1,
            6
          ],
          "texture": "#0"
        },
        "south": {
          "uv": [
            7,
            8,
            7.5,
            14
          ],
          "texture": "#0"
        },
        "west": {
          "uv": [
            1,
            0,
            2,
            6
          ],
          "texture": "#0"
        },
        "up": {
          "uv": [
            10,
            7.5,
            9.5,
            6.5
          ],
          "texture": "#0"
        },
        "down": {
          "uv": [
            10,
            7.5,
            9.5,
            8.5
          ],
          "texture": "#0"
        }
      }
    },
    {
      "from": [
        9,
        0,
        7
      ],
      "to": [
        10,
        23,
        9
      ],
      "rotation": {
        "angle": 0,
        "axis": "y",
        "origin": [
          8,
          11.33333,
          8
        ]
      },
      "faces": {
        "north": {
          "uv": [
            7.5,
            8,
            7.75,
            13.75
          ],
          "texture": "#0"
        },
        "east": {
          "uv": [
            2,
            0,
            3,
            5.75
          ],
          "texture": "#0"
        },
        "south": {
          "uv": [
            7.75,
            8,
            8,
            13.75
          ],
          "texture": "#0"
        },
        "west": {
          "uv": [
            3,
            0,
            4,
            5.75
          ],
          "texture": "#0"
        },
        "up": {
          "uv": [
            10,
            1,
            9.75,
            0
          ],
          "texture": "#0"
        },
        "down": {
          "uv": [
            10,
            1,
            9.75,
            2
          ],
          "texture": "#0"
        }
      }
    },
    {
      "from": [
        6,
        0,
        7
      ],
      "to": [
        7,
        21,
        9
      ],
      "rotation": {
        "angle": 0,
        "axis": "y",
        "origin": [
          8,
          11.33333,
          8
        ]
      },
      "faces": {
        "north": {
          "uv": [
            6,
            8.5,
            6.25,
            13.75
          ],
          "texture": "#0"
        },
        "east": {
          "uv": [
            4,
            0,
            5,
            5.25
          ],
          "texture": "#0"
        },
        "south": {
          "uv": [
            6.25,
            8.5,
            6.5,
            13.75
          ],
          "texture": "#0"
        },
        "west": {
          "uv": [
            5,
            0,
            6,
            5.25
          ],
          "texture": "#0"
        },
        "up": {
          "uv": [
            9.75,
            9.5,
            9.5,
            8.5
          ],
          "texture": "#0"
        },
        "down": {
          "uv": [
            9.75,
            9.5,
            9.5,
            10.5
          ],
          "texture": "#0"
        }
      }
    },
    {
      "from": [
        0,
        0,
        7
      ],
      "to": [
        1,
        17,
        9
      ],
      "rotation": {
        "angle": 0,
        "axis": "y",
        "origin": [
          8,
          8,
          14.4
        ]
      },
      "faces": {
        "north": {
          "uv": [
            9.25,
            0,
            9.5,
            4.25
          ],
          "texture": "#0"
        },
        "east": {
          "uv": [
            6,
            4.25,
            7,
            8.5
          ],
          "texture": "#0"
        },
        "south": {
          "uv": [
            9,
            8.5,
            9.25,
            12.75
          ],
          "texture": "#0"
        },
        "west": {
          "uv": [
            1,
            6,
            2,
            10.25
          ],
          "texture": "#0"
        },
        "up": {
          "uv": [
            10.25,
            1,
            10,
            0
          ],
          "rotation": 180,
          "texture": "#0"
        },
        "down": {
          "uv": [
            10.25,
            1,
            10,
            2
          ],
          "rotation": 180,
          "texture": "#0"
        }
      }
    },
    {
      "from": [
        1,
        0,
        6
      ],
      "to": [
        2,
        16,
        10
      ],
      "rotation": {
        "angle": 0,
        "axis": "y",
        "origin": [
          8,
          8,
          14.4
        ]
      },
      "faces": {
        "north": {
          "uv": [
            9.25,
            8.25,
            9.5,
            12.25
          ],
          "texture": "#0"
        },
        "east": {
          "uv": [
            7,
            4,
            8,
            8
          ],
          "texture": "#0"
        },
        "south": {
          "uv": [
            9.25,
            4.25,
            9.5,
            8.25
          ],
          "texture": "#0"
        },
        "west": {
          "uv": [
            7,
            0,
            8,
            4
          ],
          "texture": "#0"
        },
        "up": {
          "uv": [
            10.25,
            3,
            10,
            2
          ],
          "rotation": 180,
          "texture": "#0"
        },
        "down": {
          "uv": [
            10.25,
            3,
            10,
            4
          ],
          "rotation": 180,
          "texture": "#0"
        }
      }
    },
    {
      "from": [
        2,
        1,
        7
      ],
      "to": [
        3,
        14,
        9
      ],
      "rotation": {
        "angle": 0,
        "axis": "y",
        "origin": [
          8,
          8,
          14.4
        ]
      },
      "faces": {
        "north": {
          "uv": [
            9.5,
            3.25,
            9.75,
            6.5
          ],
          "texture": "#0"
        },
        "east": {
          "uv": [
            8,
            3.25,
            9,
            6.5
          ],
          "texture": "#0"
        },
        "south": {
          "uv": [
            9.5,
            0,
            9.75,
            3.25
          ],
          "texture": "#0"
        },
        "west": {
          "uv": [
            8,
            0,
            9,
            3.25
          ],
          "texture": "#0"
        },
        "up": {
          "uv": [
            10.25,
            5,
            10,
            4
          ],
          "rotation": 180,
          "texture": "#0"
        },
        "down": {
          "uv": [
            10.25,
            5,
            10,
            6
          ],
          "rotation": 180,
          "texture": "#0"
        }
      }
    },
    {
      "from": [
        7,
        0,
        2
      ],
      "to": [
        9,
        17,
        3
      ],
      "rotation": {
        "angle": 0,
        "axis": "y",
        "origin": [
          1.5,
          9.16667,
          8
        ]
      },
      "faces": {
        "north": {
          "uv": [
            6,
            0,
            7,
            4.25
          ],
          "texture": "#0"
        },
        "east": {
          "uv": [
            9,
            0,
            9.25,
            4.25
          ],
          "texture": "#0"
        },
        "south": {
          "uv": [
            0,
            6,
            1,
            10.25
          ],
          "texture": "#0"
        },
        "west": {
          "uv": [
            9,
            4.25,
            9.25,
            8.5
          ],
          "texture": "#0"
        },
        "up": {
          "uv": [
            10,
            3,
            9.75,
            2
          ],
          "rotation": 90,
          "texture": "#0"
        },
        "down": {
          "uv": [
            10,
            3,
            9.75,
            4
          ],
          "rotation": 270,
          "texture": "#0"
        }
      }
    },
    {
      "from": [
        6,
        0,
        1
      ],
      "to": [
        10,
        18,
        2
      ],
      "rotation": {
        "angle": 0,
        "axis": "y",
        "origin": [
          1.5,
          9.16667,
          8
        ]
      },
      "faces": {
        "north": {
          "uv": [
            3,
            5.75,
            4,
            10.25
          ],
          "texture": "#0"
        },
        "east": {
          "uv": [
            6.75,
            8.5,
            7,
            13
          ],
          "texture": "#0"
        },
        "south": {
          "uv": [
            2,
            5.75,
            3,
            10.25
          ],
          "texture": "#0"
        },
        "west": {
          "uv": [
            8.75,
            6.5,
            9,
            11
          ],
          "texture": "#0"
        },
        "up": {
          "uv": [
            10,
            5,
            9.75,
            4
          ],
          "rotation": 90,
          "texture": "#0"
        },
        "down": {
          "uv": [
            10,
            5,
            9.75,
            6
          ],
          "rotation": 270,
          "texture": "#0"
        }
      }
    },
    {
      "from": [
        7,
        0,
        0
      ],
      "to": [
        9,
        20,
        1
      ],
      "rotation": {
        "angle": 0,
        "axis": "y",
        "origin": [
          1.5,
          9.16667,
          8
        ]
      },
      "faces": {
        "north": {
          "uv": [
            5,
            5.25,
            6,
            10.25
          ],
          "texture": "#0"
        },
        "east": {
          "uv": [
            6.5,
            8.5,
            6.75,
            13.5
          ],
          "texture": "#0"
        },
        "south": {
          "uv": [
            4,
            5.25,
            5,
            10.25
          ],
          "texture": "#0"
        },
        "west": {
          "uv": [
            8.5,
            6.5,
            8.75,
            11.5
          ],
          "texture": "#0"
        },
        "up": {
          "uv": [
            10,
            9.5,
            9.75,
            8.5
          ],
          "rotation": 90,
          "texture": "#0"
        },
        "down": {
          "uv": [
            10,
            9.5,
            9.75,
            10.5
          ],
          "rotation": 270,
          "texture": "#0"
        }
      }
    }
  ],
  "groups": [
    {
      "name": "Bigbone",
      "origin": [
        0,
        0,
        0
      ],
      "children": [
        0,
        1,
        2
      ]
    },
    {
      "name": "Leftbone",
      "origin": [
        8,
        8,
        8
      ],
      "children": [
        3,
        4,
        5
      ]
    },
    {
      "name": "Rightbone",
      "origin": [
        8,
        8,
        8
      ],
      "children": [
        6,
        7,
        8
      ]
    }
  ]
}