{
  "credit": "Made with Blockbench",
  "texture_size": [
    64,
    64
  ],
  "elements": [
    {
      "from": [
        11.95,
        0,
        13.15
      ],
      "to": [
        15.95,
        17,
        14.15
      ],
      "rotation": {
        "angle": 0,
        "axis": "y",
        "origin": [
          10.9,
          15,
          7.975
        ]
      },
      "faces": {
        "north": {
          "uv": [
            1,
            0,
            2,
            6
          ],
          "texture": "#0"
        },
        "east": {
          "uv": [
            8,
            6.5,
            8.5,
            12.5
          ],
          "texture": "#0"
        },
        "south": {
          "uv": [
            0,
            0,
            1,
            6
          ],
          "texture": "#0"
        },
        "west": {
          "uv": [
            7,
            8,
            7.5,
            14
          ],
          "texture": "#0"
        },
        "up": {
          "uv": [
            10,
            7.5,
            9.5,
            6.5
          ],
          "rotation": 90,
          "texture": "#0"
        },
        "down": {
          "uv": [
            10,
            7.5,
            9.5,
            8.5
          ],
          "rotation": 270,
          "texture": "#0"
        }
      }
    },
    {
      "from": [
        -0.05,
        0,
        13.25
      ],
      "to": [
        3.95,
        17,
        14.25
      ],
      "rotation": {
        "angle": 0,
        "axis": "y",
        "origin": [
          10.9,
          15,
          7.975
        ]
      },
      "faces": {
        "north": {
          "uv": [
            1,
            0,
            2,
            6
          ],
          "texture": "#0"
        },
        "east": {
          "uv": [
            8,
            6.5,
            8.5,
            12.5
          ],
          "texture": "#0"
        },
        "south": {
          "uv": [
            0,
            0,
            1,
            6
          ],
          "texture": "#0"
        },
        "west": {
          "uv": [
            7,
            8,
            7.5,
            14
          ],
          "texture": "#0"
        },
        "up": {
          "uv": [
            10,
            7.5,
            9.5,
            6.5
          ],
          "rotation": 90,
          "texture": "#0"
        },
        "down": {
          "uv": [
            10,
            7.5,
            9.5,
            8.5
          ],
          "rotation": 270,
          "texture": "#0"
        }
      }
    },
    {
      "from": [
        12.95,
        0,
        12.15
      ],
      "to": [
        14.95,
        20,
        13.15
      ],
      "rotation": {
        "angle": 0,
        "axis": "y",
        "origin": [
          10.9,
          15,
          7.975
        ]
      },
      "faces": {
        "north": {
          "uv": [
            2,
            0,
            3,
            5.75
          ],
          "texture": "#0"
        },
        "east": {
          "uv": [
            7.75,
            8,
            8,
            13.75
          ],
          "texture": "#0"
        },
        "south": {
          "uv": [
            3,
            0,
            4,
            5.75
          ],
          "texture": "#0"
        },
        "west": {
          "uv": [
            7.5,
            8,
            7.75,
            13.75
          ],
          "texture": "#0"
        },
        "up": {
          "uv": [
            10,
            1,
            9.75,
            0
          ],
          "rotation": 270,
          "texture": "#0"
        },
        "down": {
          "uv": [
            10,
            1,
            9.75,
            2
          ],
          "rotation": 90,
          "texture": "#0"
        }
      }
    },
    {
      "from": [
        0.95,
        0,
        12.25
      ],
      "to": [
        2.95,
        20,
        13.25
      ],
      "rotation": {
        "angle": 0,
        "axis": "y",
        "origin": [
          10.9,
          15,
          7.975
        ]
      },
      "faces": {
        "north": {
          "uv": [
            5,
            0,
            6,
            5.25
          ],
          "texture": "#0"
        },
        "east": {
          "uv": [
            6,
            8.5,
            6.25,
            13.75
          ],
          "texture": "#0"
        },
        "south": {
          "uv": [
            4,
            0,
            5,
            5.25
          ],
          "texture": "#0"
        },
        "west": {
          "uv": [
            6.25,
            8.5,
            6.5,
            13.75
          ],
          "texture": "#0"
        },
        "up": {
          "uv": [
            9.75,
            9.5,
            9.5,
            8.5
          ],
          "rotation": 90,
          "texture": "#0"
        },
        "down": {
          "uv": [
            9.75,
            9.5,
            9.5,
            10.5
          ],
          "rotation": 270,
          "texture": "#0"
        }
      }
    },
    {
      "from": [
        12.95,
        19,
        11.15
      ],
      "to": [
        14.95,
        22,
        12.15
      ],
      "rotation": {
        "angle": 0,
        "axis": "y",
        "origin": [
          10.9,
          15,
          7.975
        ]
      },
      "faces": {
        "north": {
          "uv": [
            0,
            0,
            0.5,
            0.75
          ],
          "texture": "#0"
        },
        "east": {
          "uv": [
            0,
            0,
            0.25,
            0.75
          ],
          "texture": "#0"
        },
        "south": {
          "uv": [
            0,
            0,
            0.5,
            0.75
          ],
          "texture": "#0"
        },
        "west": {
          "uv": [
            0,
            0,
            0.25,
            0.75
          ],
          "texture": "#0"
        },
        "up": {
          "uv": [
            0,
            0,
            0.5,
            0.25
          ],
          "rotation": 180,
          "texture": "#0"
        },
        "down": {
          "uv": [
            0,
            0,
            0.5,
            0.25
          ],
          "rotation": 180,
          "texture": "#0"
        }
      }
    },
    {
      "from": [
        0.95,
        19,
        11.25
      ],
      "to": [
        2.95,
        22,
        12.25
      ],
      "rotation": {
        "angle": 0,
        "axis": "y",
        "origin": [
          10.9,
          15,
          7.975
        ]
      },
      "faces": {
        "north": {
          "uv": [
            0,
            0,
            0.5,
            0.75
          ],
          "texture": "#0"
        },
        "east": {
          "uv": [
            0,
            0,
            0.25,
            0.75
          ],
          "texture": "#0"
        },
        "south": {
          "uv": [
            0,
            0,
            0.5,
            0.75
          ],
          "texture": "#0"
        },
        "west": {
          "uv": [
            0,
            0,
            0.25,
            0.75
          ],
          "texture": "#0"
        },
        "up": {
          "uv": [
            0,
            0,
            0.5,
            0.25
          ],
          "texture": "#0"
        },
        "down": {
          "uv": [
            0,
            0,
            0.5,
            0.25
          ],
          "texture": "#0"
        }
      }
    },
    {
      "from": [
        0.95,
        21,
        9.25
      ],
      "to": [
        2.95,
        22,
        11.25
      ],
      "rotation": {
        "angle": 0,
        "axis": "y",
        "origin": [
          10.9,
          15,
          7.975
        ]
      },
      "faces": {
        "north": {
          "uv": [
            0,
            0,
            0.5,
            0.25
          ],
          "texture": "#0"
        },
        "east": {
          "uv": [
            0,
            0,
            0.5,
            0.25
          ],
          "texture": "#0"
        },
        "south": {
          "uv": [
            0,
            0,
            0.5,
            0.25
          ],
          "texture": "#0"
        },
        "west": {
          "uv": [
            3.5,
            0.25,
            4,
            1
          ],
          "texture": "#0"
        },
        "up": {
          "uv": [
            0,
            0,
            0.5,
            0.5
          ],
          "texture": "#0"
        },
        "down": {
          "uv": [
            0,
            0,
            0.5,
            0.5
          ],
          "texture": "#0"
        }
      }
    },
    {
      "from": [
        12.95,
        21,
        9.15
      ],
      "to": [
        14.95,
        22,
        11.15
      ],
      "rotation": {
        "angle": 0,
        "axis": "y",
        "origin": [
          10.9,
          15,
          7.975
        ]
      },
      "faces": {
        "north": {
          "uv": [
            0,
            0,
            0.5,
            0.25
          ],
          "texture": "#0"
        },
        "east": {
          "uv": [
            3.5,
            0.75,
            4,
            1
          ],
          "texture": "#0"
        },
        "south": {
          "uv": [
            0,
            0,
            0.5,
            0.25
          ],
          "texture": "#0"
        },
        "west": {
          "uv": [
            0,
            0,
            0.5,
            0.25
          ],
          "texture": "#0"
        },
        "up": {
          "uv": [
            0,
            0,
            0.5,
            0.5
          ],
          "rotation": 180,
          "texture": "#0"
        },
        "down": {
          "uv": [
            0,
            0,
            0.5,
            0.5
          ],
          "rotation": 180,
          "texture": "#0"
        }
      }
    },
    {
      "from": [
        13,
        0,
        7.2
      ],
      "to": [
        14,
        17,
        9.2
      ],
      "rotation": {
        "angle": 0,
        "axis": "y",
        "origin": [
          10.9,
          15,
          7.975
        ]
      },
      "faces": {
        "north": {
          "uv": [
            9,
            4.25,
            9.25,
            8.5
          ],
          "texture": "#0"
        },
        "east": {
          "uv": [
            6,
            0,
            7,
            4.25
          ],
          "texture": "#0"
        },
        "south": {
          "uv": [
            9,
            0,
            9.25,
            4.25
          ],
          "texture": "#0"
        },
        "west": {
          "uv": [
            0,
            6,
            1,
            10.25
          ],
          "texture": "#0"
        },
        "up": {
          "uv": [
            10,
            3,
            9.75,
            2
          ],
          "rotation": 180,
          "texture": "#0"
        },
        "down": {
          "uv": [
            10,
            3,
            9.75,
            4
          ],
          "rotation": 180,
          "texture": "#0"
        }
      }
    },
    {
      "from": [
        14,
        0,
        6.2
      ],
      "to": [
        15,
        18,
        10.2
      ],
      "rotation": {
        "angle": 0,
        "axis": "y",
        "origin": [
          10.9,
          15,
          7.975
        ]
      },
      "faces": {
        "north": {
          "uv": [
            8.75,
            6.5,
            9,
            11
          ],
          "texture": "#0"
        },
        "east": {
          "uv": [
            3,
            5.75,
            4,
            10.25
          ],
          "texture": "#0"
        },
        "south": {
          "uv": [
            6.75,
            8.5,
            7,
            13
          ],
          "texture": "#0"
        },
        "west": {
          "uv": [
            2,
            5.75,
            3,
            10.25
          ],
          "texture": "#0"
        },
        "up": {
          "uv": [
            10,
            5,
            9.75,
            4
          ],
          "rotation": 180,
          "texture": "#0"
        },
        "down": {
          "uv": [
            10,
            5,
            9.75,
            6
          ],
          "rotation": 180,
          "texture": "#0"
        }
      }
    },
    {
      "from": [
        15,
        0,
        7.2
      ],
      "to": [
        16,
        20,
        9.2
      ],
      "rotation": {
        "angle": 0,
        "axis": "y",
        "origin": [
          10.9,
          15,
          7.975
        ]
      },
      "faces": {
        "north": {
          "uv": [
            8.5,
            6.5,
            8.75,
            11.5
          ],
          "texture": "#0"
        },
        "east": {
          "uv": [
            5,
            5.25,
            6,
            10.25
          ],
          "texture": "#0"
        },
        "south": {
          "uv": [
            6.5,
            8.5,
            6.75,
            13.5
          ],
          "texture": "#0"
        },
        "west": {
          "uv": [
            4,
            5.25,
            5,
            10.25
          ],
          "texture": "#0"
        },
        "up": {
          "uv": [
            10,
            9.5,
            9.75,
            8.5
          ],
          "rotation": 180,
          "texture": "#0"
        },
        "down": {
          "uv": [
            10,
            9.5,
            9.75,
            10.5
          ],
          "rotation": 180,
          "texture": "#0"
        }
      }
    },
    {
      "from": [
        2,
        0,
        7.2
      ],
      "to": [
        3,
        17,
        9.2
      ],
      "rotation": {
        "angle": 0,
        "axis": "y",
        "origin": [
          10.9,
          15,
          7.975
        ]
      },
      "faces": {
        "north": {
          "uv": [
            9,
            0,
            9.25,
            4.25
          ],
          "texture": "#0"
        },
        "east": {
          "uv": [
            0,
            6,
            1,
            10.25
          ],
          "texture": "#0"
        },
        "south": {
          "uv": [
            9,
            4.25,
            9.25,
            8.5
          ],
          "texture": "#0"
        },
        "west": {
          "uv": [
            6,
            0,
            7,
            4.25
          ],
          "texture": "#0"
        },
        "up": {
          "uv": [
            10,
            3,
            9.75,
            2
          ],
          "texture": "#0"
        },
        "down": {
          "uv": [
            10,
            3,
            9.75,
            4
          ],
          "texture": "#0"
        }
      }
    },
    {
      "from": [
        1,
        0,
        6.2
      ],
      "to": [
        2,
        18,
        10.2
      ],
      "rotation": {
        "angle": 0,
        "axis": "y",
        "origin": [
          10.9,
          15,
          7.975
        ]
      },
      "faces": {
        "north": {
          "uv": [
            6.75,
            8.5,
            7,
            13
          ],
          "texture": "#0"
        },
        "east": {
          "uv": [
            2,
            5.75,
            3,
            10.25
          ],
          "texture": "#0"
        },
        "south": {
          "uv": [
            8.75,
            6.5,
            9,
            11
          ],
          "texture": "#0"
        },
        "west": {
          "uv": [
            3,
            5.75,
            4,
            10.25
          ],
          "texture": "#0"
        },
        "up": {
          "uv": [
            10,
            5,
            9.75,
            4
          ],
          "texture": "#0"
        },
        "down": {
          "uv": [
            10,
            5,
            9.75,
            6
          ],
          "texture": "#0"
        }
      }
    },
    {
      "from": [
        0,
        0,
        7.2
      ],
      "to": [
        1,
        20,
        9.2
      ],
      "rotation": {
        "angle": 0,
        "axis": "y",
        "origin": [
          10.9,
          15,
          7.975
        ]
      },
      "faces": {
        "north": {
          "uv": [
            6.5,
            8.5,
            6.75,
            13.5
          ],
          "texture": "#0"
        },
        "east": {
          "uv": [
            4,
            5.25,
            5,
            10.25
          ],
          "texture": "#0"
        },
        "south": {
          "uv": [
            8.5,
            6.5,
            8.75,
            11.5
          ],
          "texture": "#0"
        },
        "west": {
          "uv": [
            5,
            5.25,
            6,
            10.25
          ],
          "texture": "#0"
        },
        "up": {
          "uv": [
            10,
            9.5,
            9.75,
            8.5
          ],
          "texture": "#0"
        },
        "down": {
          "uv": [
            10,
            9.5,
            9.75,
            10.5
          ],
          "texture": "#0"
        }
      }
    }
  ],
  "groups": [
    {
      "name": "Bigbone",
      "origin": [
        0,
        0,
        0
      ],
      "color": 0,
      "children": [
        0,
        1,
        2,
        3,
        4,
        5,
        6,
        7
      ]
    },
    {
      "name": "Rightbone",
      "origin": [
        8,
        8,
        8
      ],
      "color": 0,
      "children": [
        8,
        9,
        10
      ]
    },
    {
      "name": "Rightboneplus",
      "origin": [
        8,
        8,
        8
      ],
      "color": 0,
      "children": [
        11,
        12,
        13
      ]
    }
  ]
}