{
  "format_version": "1.8.0",
  "animations": {
    "maggot.movement": {
      "loop": true,
      "animation_length": 1.04,
      "bones": {
        "Head": {
          "position": {
            "0.0": {
              "vector": [
                0,
                0,
                0
              ]
            },
            "0.52": {
              "vector": [
                0,
                0,
                1
              ]
            },
            "1.04": {
              "vector": [
                0,
                0,
                0
              ]
            }
          }
        },
        "Body": {
          "scale": {
            "0.0": {
              "vector": [
                1,
                1,
                1
              ]
            },
            "0.52": {
              "vector": [
                1,
                1.1,
                1
              ]
            },
            "1.04": {
              "vector": [
                1,
                1,
                1
              ]
            }
          }
        },
        "Tail": {
          "position": {
            "0.0": {
              "vector": [
                0,
                0,
                0
              ]
            },
            "0.52": {
              "vector": [
                0,
                0,
                -1
              ]
            },
            "1.04": {
              "vector": [
                0,
                0,
                0
              ]
            }
          }
        },
        "Tailtip": {
          "position": {
            "0.0": {
              "vector": [
                0,
                0,
                0
              ]
            },
            "0.52": {
              "vector": [
                0,
                0,
                -1
              ]
            },
            "1.04": {
              "vector": [
                0,
                0,
                0
              ]
            }
          }
        }
      }
    }
  }
}