{
  "type": "minecraft:crafting_shaped",
  "pattern": [
    "012",
    "345"
  ],
  "key": {
    "0": {
      "item": "minecraft:stick"
    },
    "1": {
      "item": "minecraft:bone"
    },
    "2": {
      "item": "minecraft:stick"
    },
    "3": {
      "item": "minecraft:stick"
    },
    "4": {
      "item": "minecraft:bone"
    },
    "5": {
      "item": "minecraft:stick"
    }
  },
  "result": {
    "item": "mocreatures:bone_fence_gate_ns",
    "count": 1
  }
}