{
  "type": "minecraft:crafting_shaped",
  "pattern": [
    "0",
    "1",
    "2"
  ],
  "key": {
    "0": {
      "item": "minecraft:rotten_flesh"
    },
    "1": {
      "item": "mocreatures:heart_of_undead"
    },
    "2": {
      "item": "minecraft:glass_bottle"
    }
  },
  "result": {
    "item": "mocreatures:essence_of_undead",
    "count": 1
  }
}