{
  "variants": {
    "facing=north": {
      "model": "mocreatures:block/bone_fence_sw"
    },
    "facing=east": {
      "model": "mocreatures:block/bone_fence_sw",
      "y": 90
    },
    "facing=south": {
      "model": "mocreatures:block/bone_fence_sw",
      "y": 180
    },
    "facing=west": {
      "model": "mocreatures:block/bone_fence_sw",
      "y": 270
    }
  }
}